cbrt_tb.vcd
$date
	Wed Nov 19 08:20:14 2025
$end
$version
	Icarus Verilog
$end
$timescale
	1ps
$end
$scope module tb_cbrt $end
$var wire 8 ! y [7:0] $end
$var wire 1 " busy $end
$var reg 1 # clk $end
$var reg 1 $ rst $end
$var reg 1 % start $end
$var reg 8 & x_i [7:0] $end
$scope module dut $end
$var wire 1 # clk $end
$var wire 1 $ rst $end
$var wire 1 % start $end
$var wire 8 ' x_i [7:0] $end
$var wire 8 ( sum_out [7:0] $end
$var wire 16 ) res_mul [15:0] $end
$var wire 1 * busy_mul $end
$var parameter 32 + IDLE $end
$var parameter 32 , ST1 $end
$var parameter 32 - ST2 $end
$var parameter 32 . ST3 $end
$var parameter 32 / ST4 $end
$var parameter 32 0 ST5 $end
$var parameter 32 1 ST6 $end
$var parameter 32 2 ST7 $end
$var parameter 32 3 ST8 $end
$var parameter 32 4 ST9 $end
$var reg 8 5 buff [7:0] $end
$var reg 8 6 buff_in [7:0] $end
$var reg 1 " busy $end
$var reg 4 7 next_state [3:0] $end
$var reg 8 8 s [7:0] $end
$var reg 1 9 start_mul $end
$var reg 4 : state [3:0] $end
$var reg 8 ; sum_in_a [7:0] $end
$var reg 8 < sum_in_b [7:0] $end
$var reg 8 = x [7:0] $end
$var reg 8 > y [7:0] $end
$var reg 8 ? y_in [7:0] $end
$scope module mul2 $end
$var wire 8 @ b [7:0] $end
$var wire 1 # clk $end
$var wire 1 $ rst $end
$var wire 1 9 start $end
$var wire 8 A a [7:0] $end
$var parameter 32 B LATENCY $end
$var reg 1 * busy $end
$var reg 2 C counter [1:0] $end
$var reg 16 D result [15:0] $end
$upscope $end
$scope module my_sum $end
$var wire 8 E a [7:0] $end
$var wire 8 F b [7:0] $end
$var wire 8 G result [7:0] $end
$upscope $end
$upscope $end
$scope task run_test $end
$var reg 8 H value [7:0] $end
$upscope $end
$upscope $end
$enddefinitions $end
$comment Show the parameter values. $end
$dumpall
b11 B
b1001 4
b1000 3
b111 2
b110 1
b101 0
b100 /
b11 .
b10 -
b1 ,
b0 +
$end
#0
$dumpvars
bx H
b0 G
b0 F
b0 E
bx D
bx C
b0 A
bx @
bx ?
bx >
bx =
b0 <
b0 ;
bx :
x9
bx 8
bx 7
bx 6
bx 5
x*
bx )
b0 (
b0 '
b0 &
0%
x$
0#
x"
bx !
$end
#5000
1#
#10000
b0 7
0"
b0 ?
b0 6
09
b0 !
b0 >
b0 @
b0 5
b0 8
b0 =
b0 :
b0 C
b0 )
b0 D
0*
1$
0#
#15000
1#
#20000
b0 H
0$
0#
#25000
1#
#30000
b1 7
1%
0#
#35000
b10 7
b11111101 <
b11111101 F
b11 (
b11 A
b11 G
b110 ;
b110 E
1"
b110 8
b1 :
1#
#40000
b10 7
b11111101 <
b11111101 F
b11 (
b11 A
b11 G
b110 ;
b110 E
b11 6
0%
0#
#45000
b11 7
b1 <
b1 F
b1 (
b1 A
b1 G
b0 ;
b0 E
19
b11 8
b10 :
1#
#50000
0#
#55000
b0 (
b0 A
b0 G
b0 <
b0 F
b1 6
09
b11 C
1*
b11 :
1#
#60000
0#
#65000
b10 C
1#
#70000
0#
#75000
b1 C
1#
#80000
0#
#85000
b0 C
1#
#90000
0#
#95000
b100 7
b0 6
0*
1#
#100000
0#
#105000
b101 7
b100 :
1#
#110000
0#
#115000
b110 7
b1 (
b1 A
b1 G
b1 ;
b1 E
b101 :
1#
#120000
0#
#125000
b111 7
b11111111 <
b11111111 F
b0 (
b0 A
b0 G
b1 ;
b1 E
b1 6
b110 :
1#
#130000
0#
#135000
b1000 7
b1 <
b1 F
b1 (
b1 A
b1 G
b0 ;
b0 E
b0 6
b1 5
b111 :
1#
#140000
0#
#145000
b1001 7
b1 (
b1 A
b1 G
b1 <
b1 F
b1 ?
b1 6
b0 5
b1000 :
1#
#150000
0#
#155000
b1 7
b0 (
b0 A
b0 G
b0 <
b0 F
b10 ?
b1 !
b1 >
b1 @
b1001 :
1#
#160000
0#
#165000
b10 7
b11111101 <
b11111101 F
b0 (
b0 A
b0 G
b11 ;
b11 E
b0 6
b1 :
1#
#170000
0#
#175000
b11 7
b1 <
b1 F
b11 (
b11 A
b11 G
b10 ;
b10 E
b100 ?
19
b10 !
b10 >
b10 @
b0 8
b10 :
1#
#180000
0#
#185000
b0 <
b0 F
b0 (
b0 A
b0 G
b0 ;
b0 E
b11 6
09
b11 :
b110 )
b110 D
b11 C
1*
1#
#190000
0#
#195000
b10 C
1#
#200000
0#
#205000
b1 C
1#
#210000
0#
#215000
b0 C
1#
#220000
0#
#225000
b100 7
b0 6
0*
1#
#230000
0#
#235000
b101 7
b11000 <
b11000 F
b11110 (
b11110 A
b11110 G
b110 ;
b110 E
b100 :
1#
#240000
0#
#245000
b110 7
b0 <
b0 F
b1 (
b1 A
b1 G
b1 ;
b1 E
b11110 6
b101 :
1#
#250000
0#
#255000
b111 7
b11100001 <
b11100001 F
b11100010 (
b11100010 A
b11100010 G
b1 ;
b1 E
b1 6
b11110 5
b110 :
1#
#260000
0#
#265000
b1001 7
b1 <
b1 F
b1 (
b1 A
b1 G
b0 ;
b0 E
b11100010 6
b1 5
b111 :
1#
#270000
0#
#275000
b1 7
b0 (
b0 A
b0 G
b0 <
b0 F
b1 6
b11100010 5
b1001 :
1#
#280000
0#
#285000
b10 7
b11111101 (
b11111101 A
b11111101 G
b11111101 <
b11111101 F
b0 6
b1 :
1#
#290000
0#
#295000
b11 7
b100 ;
b100 E
b101 (
b101 A
b101 G
b1 <
b1 F
b1000 ?
b11111101 6
19
b100 !
b100 >
b100 @
b11111101 8
b10 :
1#
#300000
0#
#305000
b0 <
b0 F
b0 (
b0 A
b0 G
b0 ;
b0 E
b101 6
09
b11 :
b10100 )
b10100 D
b11 C
1*
1#
#310000
0#
#315000
b10 C
1#
#320000
0#
#325000
b1 C
1#
#330000
0#
#335000
b0 C
1#
#340000
0#
#345000
b100 7
b0 6
0*
1#
#350000
0#
#355000
b101 7
b1010000 <
b1010000 F
b1100100 (
b1100100 A
b1100100 G
b10100 ;
b10100 E
b100 :
1#
#360000
0#
#365000
b110 7
b0 <
b0 F
b1 (
b1 A
b1 G
b1 ;
b1 E
b0 5
b101 :
1#
#370000
0#
#375000
b111 7
b11111111 <
b11111111 F
b0 (
b0 A
b0 G
b1 ;
b1 E
b1 6
b110 :
1#
#380000
0#
#385000
b1000 7
b1 <
b1 F
b1 (
b1 A
b1 G
b0 ;
b0 E
b0 6
b1 5
b111 :
1#
#390000
0#
#395000
b1001 7
b100 ;
b100 E
b101 (
b101 A
b101 G
b1 <
b1 F
b1 ?
b1 6
b0 5
b1000 :
1#
#400000
0#
#405000
b0 7
b0 <
b0 F
b0 (
b0 A
b0 G
b0 ;
b0 E
b10 ?
b101 6
b1 !
b1 >
b1 @
b1001 :
1#
#410000
0#
#415000
0"
b0 6
b0 :
1#
#420000
b0 ?
b0 !
b0 >
b0 @
b0 8
b0 )
b0 D
1$
0#
#425000
1#
#430000
b1 H
0$
0#
#435000
1#
#440000
b1 7
1%
b1 &
b1 '
0#
#445000
b10 7
b11111101 <
b11111101 F
b11 (
b11 A
b11 G
b110 ;
b110 E
1"
b1 =
b110 8
b1 :
1#
#450000
b10 7
b11111101 <
b11111101 F
b11 (
b11 A
b11 G
b110 ;
b110 E
b11 6
0%
0#
#455000
b11 7
b1 <
b1 F
b1 (
b1 A
b1 G
b0 ;
b0 E
19
b11 8
b10 :
1#
#460000
0#
#465000
b0 (
b0 A
b0 G
b0 <
b0 F
b1 6
09
b11 C
1*
b11 :
1#
#470000
0#
#475000
b10 C
1#
#480000
0#
#485000
b1 C
1#
#490000
0#
#495000
b0 C
1#
#500000
0#
#505000
b100 7
b0 6
0*
1#
#510000
0#
#515000
b101 7
b100 :
1#
#520000
0#
#525000
b110 7
b1 (
b1 A
b1 G
b1 ;
b1 E
b101 :
1#
#530000
0#
#535000
b111 7
b11111111 <
b11111111 F
b0 (
b0 A
b0 G
b1 ;
b1 E
b1 6
b110 :
1#
#540000
0#
#545000
b1000 7
b1 <
b1 F
b10 (
b10 A
b10 G
b1 ;
b1 E
b0 6
b1 5
b111 :
1#
#550000
0#
#555000
b1001 7
b1 <
b1 F
b1 (
b1 A
b1 G
b0 ;
b0 E
b10 ?
b10 6
b0 5
b1000 :
1#
#560000
0#
#565000
b1 7
b0 (
b0 A
b0 G
b0 <
b0 F
b100 ?
b1 6
b10 !
b10 >
b10 @
b0 =
b1001 :
1#
#570000
0#
#575000
b10 7
b11111101 <
b11111101 F
b0 (
b0 A
b0 G
b11 ;
b11 E
b0 6
b1 :
1#
#580000
0#
#585000
b11 7
b1 <
b1 F
b101 (
b101 A
b101 G
b100 ;
b100 E
b1000 ?
19
b100 !
b100 >
b100 @
b0 8
b10 :
1#
#590000
0#
#595000
b0 <
b0 F
b0 (
b0 A
b0 G
b0 ;
b0 E
b101 6
09
b11 :
b10100 )
b10100 D
b11 C
1*
1#
#600000
0#
#605000
b10 C
1#
#610000
0#
#615000
b1 C
1#
#620000
0#
#625000
b0 C
1#
#630000
0#
#635000
b100 7
b0 6
0*
1#
#640000
0#
#645000
b101 7
b1010000 <
b1010000 F
b1100100 (
b1100100 A
b1100100 G
b10100 ;
b10100 E
b100 :
1#
#650000
0#
#655000
b110 7
b0 <
b0 F
b1 (
b1 A
b1 G
b1 ;
b1 E
b1100100 6
b101 :
1#
#660000
0#
#665000
b111 7
b10011011 <
b10011011 F
b10011100 (
b10011100 A
b10011100 G
b1 ;
b1 E
b1 6
b1100100 5
b110 :
1#
#670000
0#
#675000
b1001 7
b1 <
b1 F
b1 (
b1 A
b1 G
b0 ;
b0 E
b10011100 6
b1 5
b111 :
1#
#680000
0#
#685000
b1 7
b0 (
b0 A
b0 G
b0 <
b0 F
b1 6
b10011100 5
b1001 :
1#
#690000
0#
#695000
b10 7
b11111101 (
b11111101 A
b11111101 G
b11111101 <
b11111101 F
b0 6
b1 :
1#
#700000
0#
#705000
b11 7
b1000 ;
b1000 E
b1001 (
b1001 A
b1001 G
b1 <
b1 F
b10000 ?
b11111101 6
19
b1000 !
b1000 >
b1000 @
b11111101 8
b10 :
1#
#710000
0#
#715000
b0 <
b0 F
b0 (
b0 A
b0 G
b0 ;
b0 E
b1001 6
09
b11 :
b1001000 )
b1001000 D
b11 C
1*
1#
#720000
0#
#725000
b10 C
1#
#730000
0#
#735000
b1 C
1#
#740000
0#
#745000
b0 C
1#
#750000
0#
#755000
b100 7
b0 6
0*
1#
#760000
0#
#765000
b101 7
b100000 <
b100000 F
b1101000 (
b1101000 A
b1101000 G
b1001000 ;
b1001000 E
b100 :
1#
#770000
0#
#775000
b110 7
b0 <
b0 F
b1 (
b1 A
b1 G
b1 ;
b1 E
b0 5
b101 :
1#
#780000
0#
#785000
b111 7
b11111111 <
b11111111 F
b0 (
b0 A
b0 G
b1 ;
b1 E
b1 6
b110 :
1#
#790000
0#
#795000
b1000 7
b1 <
b1 F
b1 (
b1 A
b1 G
b0 ;
b0 E
b0 6
b1 5
b111 :
1#
#800000
0#
#805000
b1001 7
b1000 ;
b1000 E
b1001 (
b1001 A
b1001 G
b1 <
b1 F
b1 ?
b1 6
b0 5
b1000 :
1#
#810000
0#
#815000
b0 7
b0 <
b0 F
b0 (
b0 A
b0 G
b0 ;
b0 E
b10 ?
b1001 6
b1 !
b1 >
b1 @
b1001 :
1#
#820000
0#
#825000
0"
b0 6
b0 :
1#
#830000
b0 ?
b0 !
b0 >
b0 @
b0 8
b0 )
b0 D
1$
0#
#835000
1#
#840000
b10 H
0$
0#
#845000
1#
#850000
b1 7
1%
b10 &
b10 '
0#
#855000
b10 7
b11111101 <
b11111101 F
b11 (
b11 A
b11 G
b110 ;
b110 E
1"
b10 =
b110 8
b1 :
1#
#860000
b10 7
b11111101 <
b11111101 F
b11 (
b11 A
b11 G
b110 ;
b110 E
b11 6
0%
0#
#865000
b11 7
b1 <
b1 F
b1 (
b1 A
b1 G
b0 ;
b0 E
19
b11 8
b10 :
1#
#870000
0#
#875000
b0 (
b0 A
b0 G
b0 <
b0 F
b1 6
09
b11 C
1*
b11 :
1#
#880000
0#
#885000
b10 C
1#
#890000
0#
#895000
b1 C
1#
#900000
0#
#905000
b0 C
1#
#910000
0#
#915000
b100 7
b0 6
0*
1#
#920000
0#
#925000
b101 7
b100 :
1#
#930000
0#
#935000
b110 7
b1 (
b1 A
b1 G
b1 ;
b1 E
b101 :
1#
#940000
0#
#945000
b111 7
b11111111 <
b11111111 F
b0 (
b0 A
b0 G
b1 ;
b1 E
b1 6
b110 :
1#
#950000
0#
#955000
b1000 7
b1 <
b1 F
b11 (
b11 A
b11 G
b10 ;
b10 E
b0 6
b1 5
b111 :
1#
#960000
0#
#965000
b1001 7
b1 <
b1 F
b1 (
b1 A
b1 G
b0 ;
b0 E
b11 ?
b11 6
b0 5
b1000 :
1#
#970000
0#
#975000
b1 7
b0 (
b0 A
b0 G
b0 <
b0 F
b110 ?
b1 6
b11 !
b11 >
b11 @
b0 =
b1001 :
1#
#980000
0#
#985000
b10 7
b11111101 <
b11111101 F
b0 (
b0 A
b0 G
b11 ;
b11 E
b0 6
b1 :
1#
#990000
0#
#995000
b11 7
b1 <
b1 F
b111 (
b111 A
b111 G
b110 ;
b110 E
b1100 ?
19
b110 !
b110 >
b110 @
b0 8
b10 :
1#
#1000000
0#
#1005000
b0 <
b0 F
b0 (
b0 A
b0 G
b0 ;
b0 E
b111 6
09
b11 :
b101010 )
b101010 D
b11 C
1*
1#
#1010000
0#
#1015000
b10 C
1#
#1020000
0#
#1025000
b1 C
1#
#1030000
0#
#1035000
b0 C
1#
#1040000
0#
#1045000
b100 7
b0 6
0*
1#
#1050000
0#
#1055000
b101 7
b10101000 <
b10101000 F
b11010010 (
b11010010 A
b11010010 G
b101010 ;
b101010 E
b100 :
1#
#1060000
0#
#1065000
b110 7
b0 <
b0 F
b1 (
b1 A
b1 G
b1 ;
b1 E
b11010010 6
b101 :
1#
#1070000
0#
#1075000
b111 7
b101101 <
b101101 F
b101110 (
b101110 A
b101110 G
b1 ;
b1 E
b1 6
b11010010 5
b110 :
1#
#1080000
0#
#1085000
b1000 7
b1 <
b1 F
b1 (
b1 A
b1 G
b0 ;
b0 E
b101110 6
b1 5
b111 :
1#
#1090000
0#
#1095000
b1001 7
b110 ;
b110 E
b111 (
b111 A
b111 G
b1 <
b1 F
b1 ?
b1 6
b101110 5
b1000 :
1#
#1100000
0#
#1105000
b1 7
b0 <
b0 F
b0 (
b0 A
b0 G
b0 ;
b0 E
b10 ?
b111 6
b1 !
b1 >
b1 @
b101110 =
b1001 :
1#
#1110000
0#
#1115000
b10 7
b11111101 (
b11111101 A
b11111101 G
b11111101 <
b11111101 F
b0 6
b1 :
1#
#1120000
0#
#1125000
b11 7
b10 ;
b10 E
b11 (
b11 A
b11 G
b1 <
b1 F
b100 ?
b11111101 6
19
b10 !
b10 >
b10 @
b11111101 8
b10 :
1#
#1130000
0#
#1135000
b0 <
b0 F
b0 (
b0 A
b0 G
b0 ;
b0 E
b11 6
09
b110 )
b110 D
b11 C
1*
b11 :
1#
#1140000
0#
#1145000
b10 C
1#
#1150000
0#
#1155000
b1 C
1#
#1160000
0#
#1165000
b0 C
1#
#1170000
0#
#1175000
b100 7
b0 6
0*
1#
#1180000
0#
#1185000
b101 7
b11000 <
b11000 F
b11110 (
b11110 A
b11110 G
b110 ;
b110 E
b100 :
1#
#1190000
0#
#1195000
b110 7
b0 <
b0 F
b1 (
b1 A
b1 G
b1 ;
b1 E
b0 5
b101 :
1#
#1200000
0#
#1205000
b111 7
b11111111 <
b11111111 F
b0 (
b0 A
b0 G
b1 ;
b1 E
b1 6
b110 :
1#
#1210000
0#
#1215000
b1000 7
b1 <
b1 F
b101111 (
b101111 A
b101111 G
b101110 ;
b101110 E
b0 6
b1 5
b111 :
1#
#1220000
0#
#1225000
b1001 7
b1 <
b1 F
b11 (
b11 A
b11 G
b10 ;
b10 E
b101111 ?
b101111 6
b0 5
b1000 :
1#
#1230000
0#
#1235000
b0 7
b0 <
b0 F
b0 (
b0 A
b0 G
b0 ;
b0 E
b1011110 ?
b11 6
b101111 !
b101111 >
b101111 @
b0 =
b1001 :
1#
#1240000
0#
#1245000
0"
b0 6
b0 :
1#
#1250000
b0 ?
b0 )
b0 D
b0 !
b0 >
b0 @
b0 8
1$
0#
#1255000
1#
#1260000
b1000 H
0$
0#
#1265000
1#
#1270000
b1 7
1%
b1000 &
b1000 '
0#
#1275000
b10 7
b11111101 <
b11111101 F
b11 (
b11 A
b11 G
b110 ;
b110 E
1"
b1000 =
b110 8
b1 :
1#
#1280000
b10 7
b11111101 <
b11111101 F
b11 (
b11 A
b11 G
b110 ;
b110 E
b11 6
0%
0#
#1285000
b11 7
b1 <
b1 F
b1 (
b1 A
b1 G
b0 ;
b0 E
19
b11 8
b10 :
1#
#1290000
0#
#1295000
b0 (
b0 A
b0 G
b0 <
b0 F
b1 6
09
b11 :
b11 C
1*
1#
#1300000
0#
#1305000
b10 C
1#
#1310000
0#
#1315000
b1 C
1#
#1320000
0#
#1325000
b0 C
1#
#1330000
0#
#1335000
b100 7
b0 6
0*
1#
#1340000
0#
#1345000
b101 7
b100 :
1#
#1350000
0#
#1355000
b110 7
b1 (
b1 A
b1 G
b1 ;
b1 E
b101 :
1#
#1360000
0#
#1365000
b111 7
b11111111 <
b11111111 F
b0 (
b0 A
b0 G
b1 ;
b1 E
b1 6
b110 :
1#
#1370000
0#
#1375000
b1000 7
b1 <
b1 F
b1001 (
b1001 A
b1001 G
b1000 ;
b1000 E
b0 6
b1 5
b111 :
1#
#1380000
0#
#1385000
b1001 7
b1 <
b1 F
b1 (
b1 A
b1 G
b0 ;
b0 E
b1001 ?
b1001 6
b0 5
b1000 :
1#
#1390000
0#
#1395000
b1 7
b0 (
b0 A
b0 G
b0 <
b0 F
b10010 ?
b1 6
b1001 !
b1001 >
b1001 @
b0 =
b1001 :
1#
#1400000
0#
#1405000
b10 7
b11111101 <
b11111101 F
b0 (
b0 A
b0 G
b11 ;
b11 E
b0 6
b1 :
1#
#1410000
0#
#1415000
b11 7
b1 <
b1 F
b10011 (
b10011 A
b10011 G
b10010 ;
b10010 E
b100100 ?
19
b10010 !
b10010 >
b10010 @
b0 8
b10 :
1#
#1420000
0#
#1425000
b0 <
b0 F
b0 (
b0 A
b0 G
b0 ;
b0 E
b10011 6
09
b101010110 )
b101010110 D
b11 C
1*
b11 :
1#
#1430000
0#
#1435000
b10 C
1#
#1440000
0#
#1445000
b1 C
1#
#1450000
0#
#1455000
b0 C
1#
#1460000
0#
#1465000
b100 7
b0 6
0*
1#
#1470000
0#
#1475000
b101 7
b1011000 <
b1011000 F
b10101110 (
b10101110 A
b10101110 G
b1010110 ;
b1010110 E
b100 :
1#
#1480000
0#
#1485000
b110 7
b0 <
b0 F
b1 (
b1 A
b1 G
b1 ;
b1 E
b10101110 6
b101 :
1#
#1490000
0#
#1495000
b111 7
b1010001 <
b1010001 F
b1010010 (
b1010010 A
b1010010 G
b1 ;
b1 E
b1 6
b10101110 5
b110 :
1#
#1500000
0#
#1505000
b1000 7
b1 <
b1 F
b1 (
b1 A
b1 G
b0 ;
b0 E
b1010010 6
b1 5
b111 :
1#
#1510000
0#
#1515000
b1001 7
b10010 ;
b10010 E
b10011 (
b10011 A
b10011 G
b1 <
b1 F
b1 ?
b1 6
b1010010 5
b1000 :
1#
#1520000
0#
#1525000
b1 7
b0 <
b0 F
b0 (
b0 A
b0 G
b0 ;
b0 E
b10 ?
b10011 6
b1 !
b1 >
b1 @
b1010010 =
b1001 :
1#
#1530000
0#
#1535000
b10 7
b11111101 (
b11111101 A
b11111101 G
b11111101 <
b11111101 F
b0 6
b1 :
1#
#1540000
0#
#1545000
b11 7
b10 ;
b10 E
b11 (
b11 A
b11 G
b1 <
b1 F
b100 ?
b11111101 6
19
b10 !
b10 >
b10 @
b11111101 8
b10 :
1#
#1550000
0#
#1555000
b0 <
b0 F
b0 (
b0 A
b0 G
b0 ;
b0 E
b11 6
09
b11 :
b110 )
b110 D
b11 C
1*
1#
#1560000
0#
#1565000
b10 C
1#
#1570000
0#
#1575000
b1 C
1#
#1580000
0#
#1585000
b0 C
1#
#1590000
0#
#1595000
b100 7
b0 6
0*
1#
#1600000
0#
#1605000
b101 7
b11000 <
b11000 F
b11110 (
b11110 A
b11110 G
b110 ;
b110 E
b100 :
1#
#1610000
0#
#1615000
b110 7
b0 <
b0 F
b1 (
b1 A
b1 G
b1 ;
b1 E
b0 5
b101 :
1#
#1620000
0#
#1625000
b111 7
b11111111 <
b11111111 F
b0 (
b0 A
b0 G
b1 ;
b1 E
b1 6
b110 :
1#
#1630000
0#
#1635000
b1000 7
b1 <
b1 F
b1010011 (
b1010011 A
b1010011 G
b1010010 ;
b1010010 E
b0 6
b1 5
b111 :
1#
#1640000
0#
#1645000
b1001 7
b1 <
b1 F
b11 (
b11 A
b11 G
b10 ;
b10 E
b1010011 ?
b1010011 6
b0 5
b1000 :
1#
#1650000
0#
#1655000
b0 7
b0 <
b0 F
b0 (
b0 A
b0 G
b0 ;
b0 E
b10100110 ?
b11 6
b1010011 !
b1010011 >
b1010011 @
b0 =
b1001 :
1#
#1660000
0#
#1665000
0"
b0 6
b0 :
1#
#1670000
b0 ?
b0 !
b0 >
b0 @
b0 8
b0 )
b0 D
1$
0#
#1675000
1#
#1680000
b1111 H
0$
0#
#1685000
1#
#1690000
b1 7
1%
b1111 &
b1111 '
0#
#1695000
b10 7
b11111101 <
b11111101 F
b11 (
b11 A
b11 G
b110 ;
b110 E
1"
b1111 =
b110 8
b1 :
1#
#1700000
b10 7
b11111101 <
b11111101 F
b11 (
b11 A
b11 G
b110 ;
b110 E
b11 6
0%
0#
#1705000
b11 7
b1 <
b1 F
b1 (
b1 A
b1 G
b0 ;
b0 E
19
b11 8
b10 :
1#
#1710000
0#
#1715000
b0 (
b0 A
b0 G
b0 <
b0 F
b1 6
09
b11 C
1*
b11 :
1#
#1720000
0#
#1725000
b10 C
1#
#1730000
0#
#1735000
b1 C
1#
#1740000
0#
#1745000
b0 C
1#
#1750000
0#
#1755000
b100 7
b0 6
0*
1#
#1760000
0#
#1765000
b101 7
b100 :
1#
#1770000
0#
#1775000
b110 7
b1 (
b1 A
b1 G
b1 ;
b1 E
b101 :
1#
#1780000
0#
#1785000
b111 7
b11111111 <
b11111111 F
b0 (
b0 A
b0 G
b1 ;
b1 E
b1 6
b110 :
1#
#1790000
0#
#1795000
b1000 7
b1 <
b1 F
b10000 (
b10000 A
b10000 G
b1111 ;
b1111 E
b0 6
b1 5
b111 :
1#
#1800000
0#
#1805000
b1001 7
b1 <
b1 F
b1 (
b1 A
b1 G
b0 ;
b0 E
b10000 ?
b10000 6
b0 5
b1000 :
1#
#1810000
0#
#1815000
b1 7
b0 (
b0 A
b0 G
b0 <
b0 F
b100000 ?
b1 6
b10000 !
b10000 >
b10000 @
b0 =
b1001 :
1#
#1820000
0#
#1825000
b10 7
b11111101 <
b11111101 F
b0 (
b0 A
b0 G
b11 ;
b11 E
b0 6
b1 :
1#
#1830000
0#
#1835000
b11 7
b1 <
b1 F
b100001 (
b100001 A
b100001 G
b100000 ;
b100000 E
b1000000 ?
19
b100000 !
b100000 >
b100000 @
b0 8
b10 :
1#
#1840000
0#
#1845000
b0 <
b0 F
b0 (
b0 A
b0 G
b0 ;
b0 E
b100001 6
09
b11 :
b10000100000 )
b10000100000 D
b11 C
1*
1#
#1850000
0#
#1855000
b10 C
1#
#1860000
0#
#1865000
b1 C
1#
#1870000
0#
#1875000
b0 C
1#
#1880000
0#
#1885000
b100 7
b0 6
0*
1#
#1890000
0#
#1895000
b101 7
b10000000 <
b10000000 F
b10100000 (
b10100000 A
b10100000 G
b100000 ;
b100000 E
b100 :
1#
#1900000
0#
#1905000
b110 7
b0 <
b0 F
b1 (
b1 A
b1 G
b1 ;
b1 E
b10100000 6
b101 :
1#
#1910000
0#
#1915000
b111 7
b1011111 <
b1011111 F
b1100000 (
b1100000 A
b1100000 G
b1 ;
b1 E
b1 6
b10100000 5
b110 :
1#
#1920000
0#
#1925000
b1000 7
b1 <
b1 F
b1 (
b1 A
b1 G
b0 ;
b0 E
b1100000 6
b1 5
b111 :
1#
#1930000
0#
#1935000
b1001 7
b100000 ;
b100000 E
b100001 (
b100001 A
b100001 G
b1 <
b1 F
b1 ?
b1 6
b1100000 5
b1000 :
1#
#1940000
0#
#1945000
b1 7
b0 <
b0 F
b0 (
b0 A
b0 G
b0 ;
b0 E
b10 ?
b100001 6
b1 !
b1 >
b1 @
b1100000 =
b1001 :
1#
#1950000
0#
#1955000
b10 7
b11111101 (
b11111101 A
b11111101 G
b11111101 <
b11111101 F
b0 6
b1 :
1#
#1960000
0#
#1965000
b11 7
b10 ;
b10 E
b11 (
b11 A
b11 G
b1 <
b1 F
b100 ?
b11111101 6
19
b10 !
b10 >
b10 @
b11111101 8
b10 :
1#
#1970000
0#
#1975000
b0 <
b0 F
b0 (
b0 A
b0 G
b0 ;
b0 E
b11 6
09
b110 )
b110 D
b11 C
1*
b11 :
1#
#1980000
0#
#1985000
b10 C
1#
#1990000
0#
#1995000
b1 C
1#
#2000000
0#
#2005000
b0 C
1#
#2010000
0#
#2015000
b100 7
b0 6
0*
1#
#2020000
0#
#2025000
b101 7
b11000 <
b11000 F
b11110 (
b11110 A
b11110 G
b110 ;
b110 E
b100 :
1#
#2030000
0#
#2035000
b110 7
b0 <
b0 F
b1 (
b1 A
b1 G
b1 ;
b1 E
b0 5
b101 :
1#
#2040000
0#
#2045000
b111 7
b11111111 <
b11111111 F
b0 (
b0 A
b0 G
b1 ;
b1 E
b1 6
b110 :
1#
#2050000
0#
#2055000
b1000 7
b1 <
b1 F
b1100001 (
b1100001 A
b1100001 G
b1100000 ;
b1100000 E
b0 6
b1 5
b111 :
1#
#2060000
0#
#2065000
b1001 7
b1 <
b1 F
b11 (
b11 A
b11 G
b10 ;
b10 E
b1100001 ?
b1100001 6
b0 5
b1000 :
1#
#2070000
0#
#2075000
b0 7
b0 <
b0 F
b0 (
b0 A
b0 G
b0 ;
b0 E
b11000010 ?
b11 6
b1100001 !
b1100001 >
b1100001 @
b0 =
b1001 :
1#
#2080000
0#
#2085000
0"
b0 6
b0 :
1#
#2090000
b0 ?
b0 )
b0 D
b0 !
b0 >
b0 @
b0 8
1$
0#
#2095000
1#
#2100000
b11011 H
0$
0#
#2105000
1#
#2110000
b1 7
1%
b11011 &
b11011 '
0#
#2115000
b10 7
b11111101 <
b11111101 F
b11 (
b11 A
b11 G
b110 ;
b110 E
1"
b11011 =
b110 8
b1 :
1#
#2120000
b10 7
b11111101 <
b11111101 F
b11 (
b11 A
b11 G
b110 ;
b110 E
b11 6
0%
0#
#2125000
b11 7
b1 <
b1 F
b1 (
b1 A
b1 G
b0 ;
b0 E
19
b11 8
b10 :
1#
#2130000
0#
#2135000
b0 (
b0 A
b0 G
b0 <
b0 F
b1 6
09
b11 :
b11 C
1*
1#
#2140000
0#
#2145000
b10 C
1#
#2150000
0#
#2155000
b1 C
1#
#2160000
0#
#2165000
b0 C
1#
#2170000
0#
#2175000
b100 7
b0 6
0*
1#
#2180000
0#
#2185000
b101 7
b100 :
1#
#2190000
0#
#2195000
b110 7
b1 (
b1 A
b1 G
b1 ;
b1 E
b101 :
1#
#2200000
0#
#2205000
b111 7
b11111111 <
b11111111 F
b0 (
b0 A
b0 G
b1 ;
b1 E
b1 6
b110 :
1#
#2210000
0#
#2215000
b1000 7
b1 <
b1 F
b11100 (
b11100 A
b11100 G
b11011 ;
b11011 E
b0 6
b1 5
b111 :
1#
#2220000
0#
#2225000
b1001 7
b1 <
b1 F
b1 (
b1 A
b1 G
b0 ;
b0 E
b11100 ?
b11100 6
b0 5
b1000 :
1#
#2230000
0#
#2235000
b1 7
b0 (
b0 A
b0 G
b0 <
b0 F
b111000 ?
b1 6
b11100 !
b11100 >
b11100 @
b0 =
b1001 :
1#
#2240000
0#
#2245000
b10 7
b11111101 <
b11111101 F
b0 (
b0 A
b0 G
b11 ;
b11 E
b0 6
b1 :
1#
#2250000
0#
#2255000
b11 7
b1 <
b1 F
b111001 (
b111001 A
b111001 G
b111000 ;
b111000 E
b1110000 ?
19
b111000 !
b111000 >
b111000 @
b0 8
b10 :
1#
#2260000
0#
#2265000
b0 <
b0 F
b0 (
b0 A
b0 G
b0 ;
b0 E
b111001 6
09
b110001111000 )
b110001111000 D
b11 C
1*
b11 :
1#
#2270000
0#
#2275000
b10 C
1#
#2280000
0#
#2285000
b1 C
1#
#2290000
0#
#2295000
b0 C
1#
#2300000
0#
#2305000
b100 7
b0 6
0*
1#
#2310000
0#
#2315000
b101 7
b11100000 <
b11100000 F
b1011000 (
b1011000 A
b1011000 G
b1111000 ;
b1111000 E
b100 :
1#
#2320000
0#
#2325000
b110 7
b0 <
b0 F
b1 (
b1 A
b1 G
b1 ;
b1 E
b1011000 6
b101 :
1#
#2330000
0#
#2335000
b111 7
b10100111 <
b10100111 F
b10101000 (
b10101000 A
b10101000 G
b1 ;
b1 E
b1 6
b1011000 5
b110 :
1#
#2340000
0#
#2345000
b1001 7
b1 <
b1 F
b1 (
b1 A
b1 G
b0 ;
b0 E
b10101000 6
b1 5
b111 :
1#
#2350000
0#
#2355000
b1 7
b0 (
b0 A
b0 G
b0 <
b0 F
b1 6
b10101000 5
b1001 :
1#
#2360000
0#
#2365000
b10 7
b11111101 (
b11111101 A
b11111101 G
b11111101 <
b11111101 F
b0 6
b1 :
1#
#2370000
0#
